<?xml version="1.0" encoding="utf-8"?>
<!-- Generator: Adobe Illustrator 16.0.0, SVG Export Plug-In . SVG Version: 6.00 Build 0)  -->
<!DOCTYPE svg PUBLIC "-//W3C//DTD SVG 1.1//EN" "http://www.w3.org/Graphics/SVG/1.1/DTD/svg11.dtd">
<svg version="1.1" id="Layer_1" xmlns="http://www.w3.org/2000/svg" xmlns:xlink="http://www.w3.org/1999/xlink" x="0px" y="0px"
	 width="31px" height="40px" viewBox="0 0 31 40" enable-background="new 0 0 31 40" xml:space="preserve">
<path fill-rule="evenodd" clip-rule="evenodd" fill="#93A4AA" d="M28.676,22.31L17.825,38.463C17.251,39.307,16.638,40,15.5,40
	c-1.139,0-1.749-0.693-2.324-1.537L2.326,22.31C0.761,20.01,0,17.65,0,14.712C0,6.588,6.939,0,15.5,0C24.06,0,31,6.588,31,14.712
	C31,17.65,30.241,20.01,28.676,22.31z M15.5,1.539c-7.692,0-13.95,5.829-13.95,12.996c0,2.509,0.769,4.946,2.225,7.043
	l11.727,16.886l11.725-16.887c1.455-2.096,2.225-4.533,2.225-7.042C29.45,7.367,23.191,1.539,15.5,1.539z M15.5,20.842
	c-3.567,0-6.458-2.745-6.458-6.129c0-3.387,2.891-6.13,6.458-6.13c3.567,0,6.458,2.744,6.458,6.13
	C21.958,18.097,19.067,20.842,15.5,20.842z M15.5,9.999c-2.557,0-4.636,2.071-4.636,4.616c0,2.542,2.079,4.615,4.636,4.615
	c2.556,0,4.635-2.073,4.635-4.615C20.135,12.07,18.056,9.999,15.5,9.999z"/>
</svg>
