<?xml version="1.0" encoding="utf-8"?>
<!-- Generator: Adobe Illustrator 16.0.0, SVG Export Plug-In . SVG Version: 6.00 Build 0)  -->
<!DOCTYPE svg PUBLIC "-//W3C//DTD SVG 1.1//EN" "http://www.w3.org/Graphics/SVG/1.1/DTD/svg11.dtd">
<svg version="1.1" id="Layer_1" xmlns="http://www.w3.org/2000/svg" xmlns:xlink="http://www.w3.org/1999/xlink" x="0px" y="0px"
	 width="97px" height="50.25px" viewBox="0 0 97 50.25" enable-background="new 0 0 97 50.25" xml:space="preserve">
<path fill-rule="evenodd" clip-rule="evenodd" fill="#5E6A69" d="M95,50.252H2c-1.657,0-2-2-2-2.531s0.343-2.469,2-2.469h1.319
	c0-0.002,0-0.003,0-0.004c0-24.952,20.298-45.25,45.25-45.25c24.95,0,45.249,20.298,45.249,45.25c0,0.001,0,0.002,0,0.004H95
	c1.657,0,2,1.719,2,2.5S96.657,50.252,95,50.252z M53.591,45.252c0-0.002,0-0.003,0-0.004c0-2.771-2.253-5.024-5.021-5.024
	c-2.771,0-5.025,2.254-5.025,5.024c0,0.001,0,0.002,0,0.004H53.591z M89,45.252c0-21.825-18.176-41-40-41
	c-21.827,0-41.014,19.17-41.014,40.996c0,0.001,0,0.002,0,0.004h5.074c0-0.002,0-0.003,0-0.004c0-5.775,1.418-11.508,4.101-16.581
	c0.489-0.922,1.633-1.273,2.555-0.786c0.92,0.488,1.274,1.63,0.786,2.554c-2.104,3.978-3.337,8.41-3.605,12.924h3.076
	c1.043,0,1.89,0.847,1.89,1.89c0,0.001-0.001,0.002-0.001,0.004h17.904c0-0.002,0-0.003,0-0.004c0-4.854,3.949-8.804,8.804-8.804
	c0.475,0,0.94,0.05,1.396,0.121c6.873-6.248,12.979-10.526,16.332-11.324c0.64-0.152,1.31,0.037,1.773,0.501
	s0.654,1.135,0.504,1.771c-0.795,3.355-5.075,9.463-11.326,16.337c0.073,0.457,0.121,0.921,0.121,1.397c0,0.001,0,0.002,0,0.004
	h17.904c0-0.002,0-0.003,0-0.004c0-1.043,0.847-1.89,1.889-1.89h3.074c-0.944-15.993-13.784-28.835-29.778-29.779v3.074
	c0,1.042-0.847,1.889-1.889,1.889c-1.045,0-1.89-0.847-1.89-1.889v-3.071c-6.761,0.406-13.257,2.963-18.464,7.321
	c-0.8,0.67-1.991,0.565-2.661-0.235c-0.296-0.354-0.44-0.783-0.44-1.212c0-0.54,0.23-1.075,0.678-1.45
	C32.161,12.675,40.25,9.74,48.569,9.74c19.578,0,35.506,15.928,35.506,35.508c0,0.001,0,0.002,0,0.004H89
	C89,45.25,89,45.253,89,45.252z"/>
</svg>
