<?xml version="1.0" encoding="utf-8"?>
<!-- Generator: Adobe Illustrator 16.0.0, SVG Export Plug-In . SVG Version: 6.00 Build 0)  -->
<!DOCTYPE svg PUBLIC "-//W3C//DTD SVG 1.1//EN" "http://www.w3.org/Graphics/SVG/1.1/DTD/svg11.dtd">
<svg version="1.1" id="Layer_1" xmlns="http://www.w3.org/2000/svg" xmlns:xlink="http://www.w3.org/1999/xlink" x="0px" y="0px"
	 width="17.53px" height="33.09px" viewBox="0 0 17.53 33.09" enable-background="new 0 0 17.53 33.09" xml:space="preserve">
<g>
	<g>
		<path fill="#FFFFFF" d="M15.128,16.545L0.279,1.696c-0.391-0.391-0.391-1.023,0-1.414s1.023-0.391,1.414,0L17.25,15.838
			c0.391,0.39,0.391,1.023,0,1.414L1.693,32.809c-0.391,0.391-1.023,0.391-1.414,0s-0.391-1.023,0-1.414L15.128,16.545z"/>
	</g>
</g>
</svg>
