<?xml version="1.0" encoding="utf-8"?>
<!-- Generator: Adobe Illustrator 16.0.0, SVG Export Plug-In . SVG Version: 6.00 Build 0)  -->
<!DOCTYPE svg PUBLIC "-//W3C//DTD SVG 1.1//EN" "http://www.w3.org/Graphics/SVG/1.1/DTD/svg11.dtd">
<svg version="1.1" id="Layer_1" xmlns="http://www.w3.org/2000/svg" xmlns:xlink="http://www.w3.org/1999/xlink" x="0px" y="0px"
	 width="59px" height="69px" viewBox="0 0 59 69" enable-background="new 0 0 59 69" xml:space="preserve">
<g>
	<g>
		<path fill="#5E6969" d="M59.012,37.487c0-13.612-9.029-25.121-21.339-28.722V4.312C37.673,1.93,35.768,0,33.417,0h-7.833
			c-2.351,0-4.256,1.93-4.256,4.312v4.454C9.019,12.366-0.012,23.875-0.012,37.487c0,11.08,5.985,20.765,14.849,25.929l-1.507,2.197
			c-0.67,0.978-0.431,2.321,0.533,3C14.233,68.875,14.656,69,15.075,69c0.673,0,1.336-0.323,1.75-0.926l1.896-2.764
			c3.342,1.332,6.976,2.073,10.779,2.073s7.436-0.741,10.779-2.073l1.895,2.764C42.588,68.677,43.25,69,43.925,69
			c0.419,0,0.842-0.125,1.212-0.387c0.965-0.679,1.203-2.022,0.533-3l-1.508-2.197C53.027,58.252,59.012,48.567,59.012,37.487z
			 M25.584,4.312h7.833v3.55C32.135,7.688,30.829,7.59,29.5,7.59s-2.634,0.098-3.916,0.271V4.312z M29.5,63.072
			c-13.949,0-25.255-11.455-25.255-25.585c0-14.13,11.307-25.586,25.255-25.586c13.949,0,25.256,11.456,25.256,25.586
			C54.756,51.617,43.449,63.072,29.5,63.072z M51.438,28.988c-0.301-0.788-1.181-1.178-1.957-0.875
			c-0.781,0.304-1.17,1.188-0.869,1.977c0.908,2.372,1.368,4.875,1.368,7.439c0,11.391-9.187,20.657-20.479,20.657
			c-11.292,0-20.479-9.267-20.479-20.657c0-11.392,9.187-20.658,20.479-20.658c0.837,0,1.516-0.684,1.516-1.528
			c0-0.845-0.679-1.528-1.516-1.528c-12.963,0-23.509,10.639-23.509,23.715S16.537,61.243,29.5,61.243
			c12.963,0,23.51-10.639,23.51-23.715C53.01,34.586,52.481,31.712,51.438,28.988z M35.368,17.73
			c4.036,1.215,7.56,3.628,10.192,6.979c0.299,0.38,0.74,0.58,1.188,0.58c0.33,0,0.662-0.108,0.94-0.331
			c0.656-0.524,0.767-1.485,0.247-2.147c-3.021-3.844-7.066-6.614-11.699-8.01c-0.803-0.242-1.647,0.219-1.886,1.027
			C34.11,16.637,34.566,17.489,35.368,17.73z M19.246,31.467c0-0.208-0.032-0.368-0.08-0.448l-5.121,2.32l-0.08,0.512
			c0,0.208,0.032,0.384,0.08,0.528l5.121,2.32l0.08-0.464c0-0.208-0.032-0.368-0.08-0.479l-4.177-1.889l4.177-1.92L19.246,31.467z
			 M29.863,35.659c0-1.52-0.64-2.48-1.92-2.88c1.057-0.4,1.584-1.264,1.584-2.592c0-1.712-1.2-2.736-3.361-2.736
			c-1.072,0-1.953,0.176-2.657,0.528c-0.032,0.368,0.096,0.64,0.384,0.832l0.272-0.096c0.336-0.128,1.136-0.288,1.889-0.288
			c1.536,0,2.305,0.64,2.305,1.92c0,1.312-0.752,1.968-2.273,1.968h-0.992c-0.144,0.32-0.144,0.641,0,0.96h0.992
			c1.729,0,2.593,0.736,2.593,2.224c0,1.425-0.896,2.128-2.689,2.128c-0.816,0-1.6-0.127-2.32-0.384
			c-0.224,0.225-0.32,0.513-0.304,0.864l0.304,0.128c0.4,0.192,1.393,0.416,2.4,0.416C28.711,38.651,29.863,37.468,29.863,35.659z
			 M36.408,38.651c2.576,0,3.92-1.712,3.92-5.601s-1.344-5.601-3.92-5.601c-2.561,0-3.873,1.744-3.873,5.601
			C32.535,36.939,33.848,38.651,36.408,38.651z M36.408,28.442c0.912,0,1.584,0.352,2.016,1.056
			c0.433,0.688,0.641,1.873,0.641,3.553c0,3.328-0.816,4.608-2.656,4.608c-1.793,0-2.641-1.296-2.641-4.608
			C33.768,29.723,34.615,28.442,36.408,28.442z M23.489,49.927l0.45,0.066c0.188,0,0.337-0.026,0.425-0.066v-6.851l-0.487-0.066
			c-0.213,0-0.375,0.026-0.513,0.066l-1.813,3.319c-0.1,0.199-0.225,0.478-0.388,0.85h-0.038c-0.125-0.306-0.25-0.584-0.387-0.85
			l-1.75-3.319L18.5,43.01c-0.2,0-0.362,0.026-0.5,0.066v6.851l0.413,0.066c0.175,0,0.313-0.026,0.425-0.066v-4.036
			c0-0.757-0.025-1.287-0.088-1.594h0.038c0.138,0.346,0.3,0.718,0.5,1.103l1.601,2.987l0.237,0.053c0.1,0,0.175-0.014,0.238-0.053
			l1.688-3.054c0.137-0.252,0.288-0.597,0.475-1.036h0.038c-0.05,0.531-0.075,1.063-0.075,1.58V49.927z M27.739,48.705h-0.025
			c0.038-0.039,0.05-0.637,0.05-1.792v-3.837l-0.45-0.066c-0.188,0-0.337,0.026-0.45,0.066v6.851l0.462,0.066
			c0.213,0,0.375-0.026,0.488-0.066l2.526-4.05c0.225-0.385,0.424-0.729,0.6-1.062c0.175-0.332,0.25-0.505,0.237-0.519h0.038
			c-0.038,0.041-0.051,0.651-0.051,1.846v3.784l0.463,0.066c0.188,0,0.338-0.026,0.45-0.066v-6.851l-0.476-0.066
			c-0.212,0-0.362,0.026-0.475,0.066l-2.826,4.566C28.063,48.028,27.876,48.373,27.739,48.705z M39.115,49.993
			c0.213,0,0.363-0.026,0.463-0.066v-6.851l-0.45-0.066c-0.188,0-0.338,0.026-0.45,0.066v2.921h-3.201v-2.921l-0.449-0.066
			c-0.201,0-0.351,0.026-0.451,0.066v6.851l0.451,0.066c0.199,0,0.35-0.026,0.449-0.066v-3.134h3.201v3.134L39.115,49.993z
			 M41.978,49.927l0.05,0.013c0.063,0.041,0.263,0.054,0.463,0.054c0.225,0,0.4-0.026,0.513-0.066v-0.97l-0.513-0.066
			c-0.238,0-0.4,0.027-0.513,0.066V49.927z"/>
	</g>
</g>
</svg>
