<?xml version="1.0" encoding="utf-8"?>
<!-- Generator: Adobe Illustrator 16.0.0, SVG Export Plug-In . SVG Version: 6.00 Build 0)  -->
<!DOCTYPE svg PUBLIC "-//W3C//DTD SVG 1.1//EN" "http://www.w3.org/Graphics/SVG/1.1/DTD/svg11.dtd">
<svg version="1.1" id="Layer_1" xmlns="http://www.w3.org/2000/svg" xmlns:xlink="http://www.w3.org/1999/xlink" x="0px" y="0px"
	 width="24px" height="22px" viewBox="0 0 24 22" enable-background="new 0 0 24 22" xml:space="preserve">
<g>
	<g>
		<path fill="#62A3ED" d="M20.781,14.199h0.438c0.396,0,0.719-0.316,0.719-0.709v-0.711c0-0.391-0.321-0.709-0.719-0.709h-0.438
			c-0.396,0-0.719,0.318-0.719,0.709v0.711C20.063,13.883,20.385,14.199,20.781,14.199z M20.781,18.458h0.438
			c0.396,0,0.719-0.317,0.719-0.71v-0.709c0-0.393-0.321-0.711-0.719-0.711h-0.438c-0.396,0-0.719,0.318-0.719,0.711v0.709
			C20.063,18.141,20.385,18.458,20.781,18.458z M22.563,8.998L19,9V1.417c0-0.78-0.646-1.419-1.438-1.419H1.438
			C0.647-0.002,0,0.637,0,1.417v19.165c0,0.781,0.647,1.42,1.438,1.42L20.116,22l2.446,0.002c0.789,0,1.438-0.639,1.438-1.42V10.417
			C24,9.637,23.354,8.998,22.563,8.998z M18,9c0,0,0,0.22,0,1v11H1V1h17V9z M23,21h-4V10h4V21z M13.969,5.684h1.438
			c0.396,0,0.719-0.317,0.719-0.709v-0.71c0-0.393-0.321-0.71-0.719-0.71h-1.438c-0.396,0-0.719,0.317-0.719,0.71v0.71
			C13.25,5.366,13.572,5.684,13.969,5.684z M13.969,9.941h1.438c0.396,0,0.719-0.317,0.719-0.709v-0.71
			c0-0.392-0.321-0.71-0.719-0.71h-1.438c-0.396,0-0.719,0.318-0.719,0.71v0.71C13.25,9.624,13.572,9.941,13.969,9.941z
			 M13.969,14.199h1.438c0.396,0,0.719-0.316,0.719-0.709v-0.711c0-0.391-0.321-0.709-0.719-0.709h-1.438
			c-0.396,0-0.719,0.318-0.719,0.709v0.711C13.25,13.883,13.572,14.199,13.969,14.199z M13.969,18.458h1.438
			c0.396,0,0.719-0.317,0.719-0.71v-0.709c0-0.393-0.321-0.711-0.719-0.711h-1.438c-0.396,0-0.719,0.318-0.719,0.711v0.709
			C13.25,18.141,13.572,18.458,13.969,18.458z M3.594,5.684h1.438c0.397,0,0.719-0.317,0.719-0.709v-0.71
			c0-0.393-0.322-0.71-0.719-0.71H3.594c-0.397,0-0.719,0.317-0.719,0.71v0.71C2.875,5.366,3.197,5.684,3.594,5.684z M3.594,9.941
			h1.438c0.397,0,0.719-0.317,0.719-0.709v-0.71c0-0.392-0.322-0.71-0.719-0.71H3.594c-0.397,0-0.719,0.318-0.719,0.71v0.71
			C2.875,9.624,3.197,9.941,3.594,9.941z M3.594,14.199h1.438c0.397,0,0.719-0.316,0.719-0.709v-0.711
			c0-0.391-0.322-0.709-0.719-0.709H3.594c-0.397,0-0.719,0.318-0.719,0.709v0.711C2.875,13.883,3.197,14.199,3.594,14.199z
			 M3.594,18.458h1.438c0.397,0,0.719-0.317,0.719-0.71v-0.709c0-0.393-0.322-0.711-0.719-0.711H3.594
			c-0.397,0-0.719,0.318-0.719,0.711v0.709C2.875,18.141,3.197,18.458,3.594,18.458z"/>
	</g>
</g>
</svg>
