<?xml version="1.0" encoding="utf-8"?>
<!-- Generator: Adobe Illustrator 16.0.0, SVG Export Plug-In . SVG Version: 6.00 Build 0)  -->
<!DOCTYPE svg PUBLIC "-//W3C//DTD SVG 1.1//EN" "http://www.w3.org/Graphics/SVG/1.1/DTD/svg11.dtd">
<svg version="1.1" id="Layer_1" xmlns="http://www.w3.org/2000/svg" xmlns:xlink="http://www.w3.org/1999/xlink" x="0px" y="0px"
	 width="12.971px" height="23px" viewBox="0 0 12.971 23" enable-background="new 0 0 12.971 23" xml:space="preserve">
<g>
	<path fill="#62A3ED" d="M7.48,22.926c-0.188,0-0.369-0.107-0.454-0.29c-0.116-0.25-0.007-0.548,0.244-0.664
		c1.281-0.594,2.01-1.215,1.999-1.703c-0.005-0.258-0.251-0.953-2.406-1.843c-0.67-0.275-1.12-0.753-1.301-1.38
		c-0.467-1.62,0.979-3.717,1.145-3.95c0.159-0.225,0.473-0.277,0.696-0.117c0.226,0.16,0.278,0.472,0.118,0.697
		c-0.374,0.527-1.283,2.111-0.998,3.094c0.096,0.333,0.332,0.572,0.721,0.732c2.014,0.83,3.004,1.729,3.025,2.745
		c0.021,0.957-0.823,1.818-2.579,2.633C7.623,22.911,7.551,22.926,7.48,22.926z"/>
</g>
<g>
	<path fill="#62A3ED" d="M7.724,3.993c0.759,0,1.131,0.449,1.284,0.717c0.273,0.476,0.279,1.078,0.016,1.535
		c-0.298,0.514-0.883,0.748-1.3,0.748S6.722,6.759,6.424,6.244C6.159,5.788,6.165,5.186,6.439,4.71
		C6.593,4.442,6.965,3.993,7.724,3.993 M7.724,2.993c-2.071,0-3.062,2.208-2.166,3.753c0.47,0.81,1.369,1.247,2.166,1.247
		S9.42,7.555,9.889,6.746C10.785,5.201,9.794,2.993,7.724,2.993L7.724,2.993z"/>
</g>
<g>
	<g>
		<g>
			<path fill="#62A3ED" d="M6.485,13.886c-2.224,0-4.461-1.388-5.568-3.453c-1.189-2.213-1.11-5.061,0.202-7.254
				c1.169-1.956,3.125-3.078,5.366-3.078c2.241,0,4.197,1.122,5.367,3.078c1.312,2.193,1.392,5.041,0.202,7.254
				C10.928,12.53,8.742,13.886,6.485,13.886z M6.485,1.101c-1.908,0-3.509,0.92-4.508,2.591C0.842,5.59,0.772,8.05,1.798,9.96
				c1.083,2.021,3.135,2.926,4.688,2.926c1.552,0,3.603-0.905,4.688-2.926c1.025-1.91,0.955-4.37-0.18-6.268
				C9.995,2.021,8.393,1.101,6.485,1.101z"/>
		</g>
	</g>
</g>
</svg>
