<?xml version="1.0" encoding="utf-8"?>
<!-- Generator: Adobe Illustrator 16.0.0, SVG Export Plug-In . SVG Version: 6.00 Build 0)  -->
<!DOCTYPE svg PUBLIC "-//W3C//DTD SVG 1.1//EN" "http://www.w3.org/Graphics/SVG/1.1/DTD/svg11.dtd">
<svg version="1.1" id="Layer_1" xmlns="http://www.w3.org/2000/svg" xmlns:xlink="http://www.w3.org/1999/xlink" x="0px" y="0px"
	 width="11px" height="21px" viewBox="0 0 11 21" enable-background="new 0 0 11 21" xml:space="preserve">
<g>
	<g>
		<path fill="#62A3ED" d="M7.5,6h3C10.775,6,11,5.776,11,5.5S10.775,5,10.5,5h-3C7.225,5,7,5.224,7,5.5S7.225,6,7.5,6z M10.5,8h-3
			C7.225,8,7,8.224,7,8.5S7.225,9,7.5,9h3C10.775,9,11,8.776,11,8.5S10.775,8,10.5,8z M10.5,11h-3C7.225,11,7,11.225,7,11.5
			S7.225,12,7.5,12h3c0.275,0,0.5-0.225,0.5-0.5S10.775,11,10.5,11z M5.5,3C5.775,3,6,2.776,6,2.5v-2C6,0.224,5.775,0,5.5,0
			C5.224,0,5,0.224,5,0.5v2C5,2.776,5.224,3,5.5,3z M0.5,6h3C3.776,6,4,5.776,4,5.5S3.776,5,3.5,5h-3C0.224,5,0,5.224,0,5.5
			S0.224,6,0.5,6z M0.5,9h3C3.776,9,4,8.776,4,8.5S3.776,8,3.5,8h-3C0.224,8,0,8.224,0,8.5S0.224,9,0.5,9z M4,11.5
			C4,11.225,3.776,11,3.5,11h-3C0.224,11,0,11.225,0,11.5S0.224,12,0.5,12h3C3.776,12,4,11.775,4,11.5z M8.5,20H6v-3.5
			C6,16.225,5.775,16,5.5,16C5.224,16,5,16.225,5,16.5V20H2.5C2.224,20,2,20.225,2,20.5S2.224,21,2.5,21h6C8.775,21,9,20.775,9,20.5
			S8.775,20,8.5,20z"/>
	</g>
</g>
<path fill="none" d="M4.5-184h2c2.484,0,4.5,2.015,4.5,4.5v8c0,2.485-2.016,4.5-4.5,4.5h-2c-2.485,0-4.5-2.015-4.5-4.5v-8
	C0-181.985,2.015-184,4.5-184z"/>
<path fill="#62A3ED" d="M6.5,1C8.43,1,10,2.57,10,4.5v8c0,1.93-1.57,3.5-3.5,3.5h-2C2.57,16,1,14.43,1,12.5v-8C1,2.57,2.57,1,4.5,1
	H6.5 M6.5,0h-2C2.015,0,0,2.015,0,4.5v8C0,14.984,2.015,17,4.5,17h2c2.484,0,4.5-2.016,4.5-4.5v-8C11,2.015,8.984,0,6.5,0L6.5,0z"/>
</svg>
