<?xml version="1.0" encoding="utf-8"?>
<!-- Generator: Adobe Illustrator 16.0.0, SVG Export Plug-In . SVG Version: 6.00 Build 0)  -->
<!DOCTYPE svg PUBLIC "-//W3C//DTD SVG 1.1//EN" "http://www.w3.org/Graphics/SVG/1.1/DTD/svg11.dtd">
<svg version="1.1" id="Layer_1" xmlns="http://www.w3.org/2000/svg" xmlns:xlink="http://www.w3.org/1999/xlink" x="0px" y="0px"
	 width="21.061px" height="16px" viewBox="0 0 21.061 16" enable-background="new 0 0 21.061 16" xml:space="preserve">
<path fill="#62A3ED" d="M18.328,7.082c-0.012-0.005-0.017-0.016-0.015-0.026c0.267-1.513,0.063-3.19-1.65-5.089
	c-1.023-1.133-2.424-1.902-3.938-1.96c-2.446-0.093-4.571,1.328-5.553,3.41C7.168,3.427,7.158,3.432,7.147,3.43
	c-0.34-0.073-0.693-0.107-1.059-0.092C5.433,3.367,4.804,3.64,4.283,4.044C2.037,5.785,1.86,7.134,2.054,8.356
	C2.055,8.367,2.05,8.376,2.04,8.381c-1.193,0.6-2.016,1.844-2.016,3.285v0.641c0,2.039,1.628,3.691,3.638,3.691h12.573
	c2.484,0,4.673-1.909,4.795-4.428C21.128,9.577,19.99,7.843,18.328,7.082z M16.514,14.666H3.987c-1.457,0-2.637-1.2-2.637-2.68
	c0-1.428,1.104-2.584,2.488-2.664c-0.322-0.483-0.51-1.064-0.51-1.691c0-1.665,1.329-3.015,2.967-3.015
	c0.642,0,1.23,0.212,1.717,0.563c0.365-2.219,2.259-3.913,4.546-3.913c2.549,0,4.615,2.1,4.615,4.689
	c0,0.729-0.168,1.415-0.459,2.03c1.726,0.106,3.097,1.549,3.097,3.33C19.811,13.166,18.335,14.666,16.514,14.666z"/>
</svg>
